#121 - Napoli

owner = A02
controller = A02
add_core = A02
culture = derannic
religion = regent_court
hre = no 
base_tax = 5
base_production = 5
trade_goods = fish
base_manpower = 3
capital = ""
is_city = yes	#






