#153 - Pest | Exwes

owner = A40
controller = A40
add_core = A40
culture = exwesser
religion = regent_court

hre = yes

base_tax = 4
base_production = 4
base_manpower = 5

trade_goods = grain
capital = ""

is_city = yes
fort_15th = yes 








add_permanent_province_modifier = {
	name = halfling_minority_coexisting_large
	duration = -1
}