#539 - qasnabor

owner = F34
controller = F34
add_core = F34
culture = bahari
religion = bulwari_sun_cult

base_tax = 2
base_production = 2
base_manpower = 2

trade_goods = gems

capital = ""

is_city = yes











